{
  "level2": "Gender polices",
  "leveltwo": [
    "Non-binary people aren’t confused about their gender identity or following a new fad – non-binary identities have been recognized for millennia by cultures and societies around the world.",
    "Gender research offers updated empirical knowledge about gendered practices, norms, and discourses in politically significant ways.",
    "The Danish People's Party wants a showdown with the gender and body politicization of our higher education. As they are seeing an increasing and harmful trend towards this form of pseudoscience.",
    "Danish People's Party asks the education and research minister to investigate the extent of gender studies in Denmark in higher education.",
    "We are also witnessing a strong gender politicization of our social education program."

  ]
}
